<svg xmlns="http://www.w3.org/2000/svg" width="15" height="20" viewBox="0 0 15 20">
    <path fill="#403A3D" fill-rule="nonzero" d="M9.8 2.211C9.8.993 8.766 0 7.5 0 6.233 0 5.2.994 5.2 2.211 2.168 3.236 0 6.281 0 9.84v6.73h4.667v.706C4.667 18.782 5.934 20 7.5 20c1.566 0 2.833-1.218 2.833-2.724v-.705H15V9.84c0-3.559-2.2-6.604-5.2-7.629zm-2.3-.608c.2 0 .4.096.5.256-.167 0-.333-.032-.5-.032-.167 0-.333 0-.5.032.1-.16.3-.256.5-.256zm1.167 15.672c0 .609-.534 1.122-1.167 1.122s-1.167-.513-1.167-1.122v-.704h2.334v.704zm-7-2.307V9.84c0-3.526 2.633-6.41 5.833-6.41s5.833 2.884 5.833 6.41v5.128H1.667z"/>
</svg>
