<svg xmlns="http://www.w3.org/2000/svg" width="20" height="18" viewBox="0 0 20 18">
    <path fill="#787275" fill-rule="nonzero" d="M9.515 9.428h1.73c.478 0 .865.381.865.858a.861.861 0 0 1-.864.857h-2.6a.864.864 0 0 1-.861-.861V6.86A.86.86 0 0 1 8.65 6c.477 0 .865.386.865.86v2.567zm8.647-.249l.36-.357a.869.869 0 0 1 1.224 0 .85.85 0 0 1 0 1.212l-1.835 1.819a.864.864 0 0 1-1.223 0l-1.835-1.819a.848.848 0 0 1 0-1.212.869.869 0 0 1 1.223 0l.356.353c.002-.058.002-.116.002-.175 0-4.024-3.29-7.286-7.352-7.286C5.022 1.714 1.73 4.976 1.73 9c0 4.024 3.292 7.286 7.352 7.286a7.365 7.365 0 0 0 4.644-1.637l1.408 1.062A9.096 9.096 0 0 1 9.082 18C4.067 18 0 13.97 0 9s4.067-9 9.082-9c5.016 0 9.082 4.03 9.082 9 0 .06 0 .12-.002.18z"/>
</svg>
