<svg xmlns="http://www.w3.org/2000/svg" width="18" height="18" viewBox="0 0 18 18">
    <path fill="#787275" fill-rule="nonzero" d="M9 18c-4.95 0-9-4.05-9-9s4.05-9 9-9 9 4.05 9 9-4.05 9-9 9zM9 1.8C5.04 1.8 1.8 5.04 1.8 9s3.24 7.2 7.2 7.2 7.2-3.24 7.2-7.2S12.96 1.8 9 1.8zm-.883 10.8a.831.831 0 0 1-.633-.268L4.772 9.65a.856.856 0 0"/>
</svg>
