<?xml version="1.0" encoding="UTF-8"?>
<svg width="16px" height="16px" viewBox="0 0 16 16" version="1.1" xmlns="http://www.w3.org/2000/svg" xmlns:xlink="http://www.w3.org/1999/xlink">
    <!-- Generator: Sketch 46.2 (44496) - http://www.bohemiancoding.com/sketch -->
    <title>Combined Shape</title>
    <desc>Created with Sketch.</desc>
    <defs></defs>
    <g id="patients" stroke="none" stroke-width="1" fill="none" fill-rule="evenodd">
        <g id="patientsDetailsNurturingCompleted" transform="translate(-440.000000, -240.000000)" fill-rule="nonzero" fill="#E82A83">
            <g id="Group-17" transform="translate(400.000000, 222.000000)">
                <g id="tabs">
                    <g id="Group-6-Copy" transform="translate(40.000000, 17.000000)">
                        <path d="M11.3281528,3.43185442 C10.0652609,3.43185442 9.06659255,4.45777699 9.06659255,5.68843152 C9.06659255,6.94854069 10.0947806,7.94500862 11.3281528,7.94500862 C12.5615249,7.94500862 13.589713,6.94856003 13.589713,5.68843152 C13.589713,4.45777699 12.5615249,3.43185442 11.3281528,3.43185442 L11.3281528,3.43185442 Z M11.3281528,6.80202177 C10.7110887,6.80202177 10.2416619,6.3041746 10.2416619,5.71792484 C10.2416619,5.10222045 10.7406084,4.63382791 11.3281528,4.63382791 C11.9156971,4.63382791 12.4146436,5.13167508 12.4146436,5.71792484 C12.4146436,6.3041746 11.9156971,6.80202177 11.3281528,6.80202177 Z M13.8538976,1 L9.3307772,1.14655954 C8.56758786,1.20548622 7.83316227,1.52732308 7.27525389,2.08409886 L0.726846999,8.61885063 C-0.242282333,9.58584459 -0.242282333,11.1390303 0.726846999,12.1060242 L4.89720434,16.2671926 C5.36738712,16.7363394 6.01321491,17 6.62952302,17 C7.24658705,17 7.89241483,16.7658134 8.3618417,16.2671926 L14.9110239,9.73244087 C15.4690292,9.17566509 15.7923307,8.4723317 15.8506335,7.68144669 L15.9975167,3.16906608 C16.0270442,2.58283566 15.7915767,2.02604054 15.3804527,1.61584171 C14.9996236,1.20486927 14.441599,1.00013731 13.854074,1.00013731 L13.8538976,1 Z M14.7056654,7.5929648 C14.676138,8.09081197 14.4709616,8.53050413 14.1181404,8.88254795 L7.5394967,15.4461161 C7.04055015,15.9439633 6.21830206,15.9439633 5.71859959,15.4461161 L1.54901756,11.2849477 C1.05007101,10.7871006 1.05007101,9.96666421 1.54901756,9.46806279 L8.09819975,2.93331102 C8.45026506,2.58202145 8.89090878,2.37653524 9.36109157,2.3470806 L13.8834367,2.20052106 C14.1476795,2.20052106 14.3823832,2.28815393 14.5588035,2.46418164 C14.7352161,2.64020548 14.8230463,2.87439981 14.8230463,3.13806039 L14.7056654,7.5929648 Z" id="Combined-Shape"></path>
                    </g>
                </g>
            </g>
        </g>
    </g>
</svg>