<svg xmlns="http://www.w3.org/2000/svg" width="26" height="26" viewBox="0 0 26 26">
    <path fill="#C175C4" fill-rule="nonzero" d="M13 26C5.832 26 0 20.168 0 13S5.832 0 13 0s13 5.832 13 13-5.832 13-13 13zm0-24.916C6.43 1.084 1.084 6.43 1.084 13S6.43 24.916 13 24.916 24.916 19.57 24.916 13 19.57 1.084 13 1.084zm3.25 8.125h-1.084v-.543A2.168 2.168 0 0 0 13 6.5a2.168 2.168 0 0 0-2.166 2.166v.542H9.75v-.542A3.254 3.254 0 0 1 13 5.416a3.254 3.254 0 0 1 3.25 3.25v.543zM6.5 8.666h13V9.75h-13V8.666zm10.161 11.918H9.34a1.75 1.75 0 0 1-1.755-1.74v-8.01h1.083v8.01c0 .361.301.656.672.656h7.323c.371 0 .672-.295.672-.656v-8.01h1.083v8.01a1.751 1.751 0 0 1-1.756 1.74zm-5.827-8.668h1.083v5.417h-1.083v-5.417zm3.25 0h1.083v5.417h-1.083v-5.417z"/>
</svg>
